…
balance
```

    ## # A tibble: 6,912 x 11
    ##    balancing_autho… datetime            demand_forecast demand net_generation
    ##    <chr>            <dttm>                        <int>  <int>          <int>
    ##  1 CISO             2020-01-01 01:00:00           21435  21810          11021
    ##  2 CISO             2020-01-01 02:00:00           20588  21049          10378
    ##  3 CISO             2020-01-01 03:00:00           19945  20457           9903
    ##  4 CISO             2020-01-01 04:00:00           19578  20118           9717
    ##  5 CISO             2020-01-01 05:00:00           19557  19971           9525
    ##  6 CISO             2020-01-01 06:00:00           19951  20256           9392
    ##  7 CISO             2020-01-01 07:00:00           20693  20747           9281
    ##  8 CISO             2020-01-01 08:00:00           20511  20729          10524
    ##  9 CISO             2020-01-01 09:00:00           20021  20282          13574
    ## 10 CISO             2020-01-01 10:00:00           19501  19653          14073
    ## # … with 6,902 more rows, and 6 more variables: total_interchange <int>,
    ## #   net_gen_coal <int>, net_gen_natgas <int>, net_gen_nuclear <int>,
    ## #   net_gen_solar <int>, net_gen_wind <int>
…
