…
energy_data_clean
```

    ## # A tibble: 24,128 x 4
    ##    state  year msn   amount
    ##    <chr> <int> <chr>  <dbl>
    ##  1 AK     1960 Coal    7189
    ##  2 AK     1961 Coal   11552
    ##  3 AK     1962 Coal   13559
    ##  4 AK     1963 Coal   11999
    ##  5 AK     1964 Coal   12029
    ##  6 AK     1965 Coal    9888
    ##  7 AK     1966 Coal   16431
    ##  8 AK     1967 Coal   18462
    ##  9 AK     1968 Coal   15998
    ## 10 AK     1969 Coal   13191
    ## # … with 24,118 more rows
## Getting percentages by source for each year and state

``` r
consumption_fractions <- 
  energy_data_clean %>% 
  group_by(state, year) %>% 
  mutate(total_cons = sum(amount)) %>% 
  ungroup() %>% 
  mutate(frac_amount = amount / total_cons) %>% 
  select(state, year, msn, frac_amount)

consumption_fractions
```

    ## # A tibble: 24,128 x 4
    ##    state  year msn   frac_amount
    ##    <chr> <int> <chr>       <dbl>
    ##  1 AK     1960 Coal        0.449
    ##  2 AK     1961 Coal        0.546
    ##  3 AK     1962 Coal        0.541
    ##  4 AK     1963 Coal        0.473
    ##  5 AK     1964 Coal        0.447
    ##  6 AK     1965 Coal        0.379
    ##  7 AK     1966 Coal        0.444
    ##  8 AK     1967 Coal        0.476
    ##  9 AK     1968 Coal        0.380
    ## 10 AK     1969 Coal        0.204
    ## # … with 24,118 more rows
…
